<?xml version="1.0" standalone="no"?>
<!DOCTYPE svg PUBLIC "-//W3C//DTD SVG 1.1//EN" "http://www.w3.org/Graphics/SVG/1.1/DTD/svg11.dtd" >
<svg xmlns="http://www.w3.org/2000/svg">
<metadata>Generated by IcoMoon</metadata>
<defs>
<font id="icomoon" horiz-adv-x="512">
<font-face units-per-em="512" ascent="480" descent="-32" />
<missing-glyph horiz-adv-x="512" />
<glyph unicode="&#x20;" d="" horiz-adv-x="256" />
<glyph unicode="&#xe600;" d="M256 448c141.385 0 256-93.125 256-208s-114.615-208-256-208c-13.578 0-26.905 0.867-39.912 2.522-54.989-54.989-120.625-64.85-184.088-66.298v13.458c34.268 16.789 64 47.37 64 82.318 0 4.877-0.379 9.665-1.082 14.348-57.898 38.132-94.918 96.377-94.918 161.652 0 114.875 114.615 208 256 208z" />
<glyph unicode="&#xe601;" d="M544 29.417c0-22.75 13.014-42.454 32-52.092v-7.969c-5.313-0.727-10.736-1.112-16.25-1.112-34.004 0-64.674 14.264-86.361 37.132-13.111-3.491-27.001-5.376-41.389-5.376-79.529 0-144 57.308-144 128s64.471 128 144 128c79.529 0 144-57.308 144-128 0-27.674-9.882-53.296-26.678-74.233-3.412-7.412-5.322-15.656-5.322-24.35zM256 480c139.229 0 252.496-90.307 255.918-202.76-24.591 10.96-51.793 16.76-79.918 16.76-47.78 0-92.908-16.723-127.069-47.089-35.423-31.486-54.931-73.717-54.931-118.911 0-22.336 4.772-43.944 13.868-63.894-2.614-0.063-5.234-0.106-7.868-0.106-13.578 0-26.905 0.867-39.912 2.522-54.989-54.989-120.625-64.85-184.088-66.298v13.458c34.268 16.789 64 47.37 64 82.318 0 4.877-0.379 9.665-1.082 14.348-57.898 38.132-94.918 96.377-94.918 161.652 0 114.875 114.615 208 256 208z" horiz-adv-x="576" />
<glyph unicode="&#xe602;" d="M240 480v0c132.548 0 240-86.957 240-194.224s-107.452-194.224-240-194.224c-12.729 0-25.223 0.81-37.417 2.355-51.553-51.347-111.086-60.554-170.583-61.907v12.567c32.126 15.677 58 44.233 58 76.867 0 4.553-0.356 9.024-1.015 13.397-54.279 35.607-88.985 89.994-88.985 150.945 0 107.267 107.452 194.224 240 194.224zM498 44.657c0-27.971 18.157-52.449 46-65.886v-10.771c-51.563 1.159-98.893 9.051-143.571 53.063-10.57-1.325-21.397-2.020-32.429-2.020-47.735 0-91.704 12.879-126.807 34.52 72.337 0.253 140.63 23.427 192.417 65.336 26.104 21.126 46.697 45.913 61.207 73.674 15.383 29.433 23.183 60.791 23.183 93.203 0 5.224-0.225 10.418-0.629 15.584 36.285-29.967 58.629-70.811 58.629-115.838 0-52.244-30.079-98.861-77.12-129.382-0.571-3.748-0.88-7.58-0.88-11.483z" horiz-adv-x="576" />
<glyph unicode="&#xe603;" d="M256 384c-27.466 0-53.994-4.331-78.847-12.871-23.356-8.027-44.153-19.372-61.814-33.722-33.107-26.899-51.339-61.492-51.339-97.407 0-20.149 5.594-39.689 16.626-58.076 11.376-18.96 28.491-36.293 49.494-50.126 15.178-9.996 25.39-25.974 28.088-43.947 0.9-5.992 1.464-12.044 1.685-18.062 3.735 3.097 7.375 6.423 10.94 9.988 12.077 12.076 28.39 18.745 45.251 18.745 2.684 0 5.381-0.168 8.078-0.512 10.487-1.333 21.199-2.010 31.838-2.010 27.467 0 53.994 4.33 78.847 12.871 23.356 8.027 44.153 19.372 61.814 33.722 33.107 26.898 51.339 61.492 51.339 97.407s-18.232 70.508-51.339 97.407c-17.661 14.349-38.458 25.695-61.814 33.722-24.853 8.54-51.38 12.871-78.847 12.871zM256 448v0c141.385 0 256-93.125 256-208s-114.615-208-256-208c-13.578 0-26.905 0.867-39.912 2.522-54.989-54.989-120.625-64.85-184.088-66.298v13.458c34.268 16.789 64 47.37 64 82.318 0 4.877-0.379 9.665-1.082 14.348-57.898 38.132-94.918 96.377-94.918 161.652 0 114.875 114.615 208 256 208z" />
<glyph unicode="&#xe604;" d="M544 29.417c0-22.75 13.014-42.454 32-52.092v-7.969c-5.313-0.727-10.736-1.112-16.25-1.112-34.004 0-64.674 14.264-86.361 37.132-13.111-3.491-27.001-5.376-41.389-5.376-79.529 0-144 57.308-144 128s64.471 128 144 128c79.529 0 144-57.308 144-128 0-27.674-9.882-53.296-26.678-74.233-3.412-7.412-5.322-15.656-5.322-24.35zM115.339 369.407c-33.107-26.899-51.339-61.492-51.339-97.407 0-20.149 5.594-39.689 16.626-58.075 11.376-18.96 28.491-36.293 49.494-50.126 15.178-9.996 25.39-25.974 28.088-43.947 0.9-5.992 1.464-12.044 1.685-18.062 3.735 3.097 7.375 6.423 10.94 9.988 12.077 12.076 28.39 18.745 45.251 18.745 2.684 0 5.381-0.168 8.078-0.512 10.474-1.331 21.172-2.008 31.797-2.010v-64c-13.564 0.001-26.877 0.869-39.871 2.521-54.989-54.989-120.625-64.85-184.088-66.298v13.458c34.268 16.789 64 47.37 64 82.318 0 4.877-0.379 9.665-1.082 14.348-57.898 38.132-94.918 96.377-94.918 161.652 0 114.875 114.615 208 256 208 139.229 0 252.496-90.307 255.918-202.76-20.548 9.158-42.92 14.711-66.131 16.289-5.765 28.034-22.701 54.408-49.126 75.878-17.661 14.349-38.458 25.695-61.814 33.722-24.853 8.54-51.38 12.871-78.847 12.871s-53.994-4.331-78.847-12.871c-23.356-8.027-44.153-19.372-61.814-33.722z" horiz-adv-x="576" />
<glyph unicode="&#xe605;" d="M240 416c-25.333 0-49.791-3.975-72.693-11.814-21.462-7.347-40.557-17.718-56.751-30.823-30.022-24.295-46.556-55.401-46.556-87.587 0-17.995 5.033-35.474 14.96-51.949 10.343-17.17 25.949-32.897 45.13-45.479 15.22-9.984 25.468-25.976 28.181-43.975 0.451-2.995 0.815-6.003 1.090-9.016 1.361 1.26 2.712 2.557 4.057 3.897 12.069 12.020 28.344 18.656 45.161 18.656 2.674 0 5.359-0.168 8.047-0.509 9.68-1.226 19.562-1.848 29.374-1.848 25.333 0 49.79 3.974 72.692 11.814 21.463 7.346 40.558 17.717 56.752 30.822 30.023 24.295 46.556 55.401 46.556 87.587s-16.533 63.291-46.556 87.587c-16.194 13.106-35.289 23.476-56.752 30.823-22.902 7.839-47.359 11.814-72.692 11.814zM240 480v0c132.548 0 240-86.957 240-194.224s-107.452-194.224-240-194.224c-12.729 0-25.223 0.81-37.417 2.355-51.553-51.347-111.086-60.554-170.583-61.907v12.567c32.126 15.677 58 44.233 58 76.867 0 4.553-0.356 9.024-1.015 13.397-54.279 35.607-88.985 89.994-88.985 150.945 0 107.267 107.452 194.224 240 194.224zM498 44.657c0-27.971 18.157-52.449 46-65.886v-10.771c-51.563 1.159-98.893 9.051-143.571 53.063-10.57-1.325-21.397-2.020-32.429-2.020-47.735 0-91.704 12.879-126.807 34.52 72.337 0.253 140.63 23.427 192.417 65.336 26.104 21.126 46.697 45.913 61.207 73.674 15.383 29.433 23.183 60.791 23.183 93.203 0 5.224-0.225 10.418-0.629 15.584 36.285-29.967 58.629-70.811 58.629-115.838 0-52.244-30.079-98.861-77.12-129.382-0.571-3.748-0.88-7.58-0.88-11.483z" horiz-adv-x="576" />
<glyph unicode="&#xe606;" d="M128 320c0 70.692 57.308 128 128 128s128-57.308 128-128c0-70.692-57.308-128-128-128s-128 57.308-128 128zM384 160h-256c-70.692 0-128-57.309-128-128v-32h512v32c0 70.691-57.308 128-128 128z" />
<glyph unicode="&#xe607;" d="M256 480c-141.385 0-256-114.615-256-256s114.615-256 256-256 256 114.615 256 256-114.615 256-256 256zM256 352c70.692 0 128-57.308 128-128s-57.308-128-128-128-128 57.308-128 128 57.308 128 128 128zM408.735 71.265c-40.797-40.797-95.040-63.265-152.735-63.265-57.696 0-111.938 22.468-152.735 63.265s-63.265 95.039-63.265 152.735c0 57.695 22.468 111.938 63.265 152.735l33.941-33.941c0 0 0 0 0 0-65.503-65.503-65.503-172.085 0-237.588 31.731-31.731 73.919-49.206 118.794-49.206s87.062 17.475 118.794 49.206c65.503 65.503 65.503 172.084 0 237.588l33.941 33.941c40.797-40.797 63.265-95.040 63.265-152.735 0-57.696-22.468-111.938-63.265-152.735z" />
<glyph unicode="&#xe608;" d="M496.131 44.302l-121.276 103.147c-12.537 11.283-25.945 16.463-36.776 15.963 28.628 33.534 45.921 77.039 45.921 124.588 0 106.039-85.961 192-192 192s-192-85.961-192-192c0-106.039 85.961-192 192-192 47.549 0 91.054 17.293 124.588 45.922-0.5-10.831 4.68-24.239 15.963-36.776l103.147-121.276c17.661-19.623 46.511-21.277 64.11-3.678s15.946 46.449-3.677 64.11zM192 160c-70.692 0-128 57.308-128 128s57.308 128 128 128 128-57.308 128-128-57.307-128-128-128z" />
<glyph unicode="&#xe609;" d="M466.895 174.875c-26.863 46.527-10.708 106.152 36.076 133.244l-50.313 87.146c-14.375-8.427-31.088-13.259-48.923-13.259-53.768 0-97.354 43.873-97.354 97.995h-100.629c0.133-16.705-4.037-33.641-12.979-49.126-26.862-46.528-86.578-62.351-133.431-35.379l-50.312-87.146c14.485-8.236 27.025-20.294 35.943-35.739 26.819-46.454 10.756-105.96-35.854-133.112l50.313-87.146c14.325 8.348 30.958 13.127 48.7 13.127 53.598 0 97.072-43.596 97.35-97.479h100.627c-0.043 16.537 4.136 33.285 12.983 48.609 26.818 46.453 86.388 62.297 133.207 35.506l50.313 87.145c-14.39 8.233-26.846 20.249-35.717 35.614zM256 120.334c-57.254 0-103.668 46.412-103.668 103.667 0 57.254 46.413 103.667 103.668 103.667s103.666-46.413 103.666-103.667c-0.001-57.255-46.412-103.667-103.666-103.667z" />
<glyph unicode="&#xe60a;" d="M0 64h512v-64h-512zM64 192h64v-96h-64zM160 320h64v-224h-64zM256 224h64v-128h-64zM352 416h64v-320h-64z" />
<glyph unicode="&#xe60b;" d="M256-32c141.385 0 256 114.615 256 256s-114.615 256-256 256-256-114.615-256-256 114.615-256 256-256zM256 432c114.875 0 208-93.125 208-208s-93.125-208-208-208-208 93.125-208 208 93.125 208 208 208zM256 180.62c57.975 0 113.115 15.403 160 42.46-7.287-89.219-76.564-159.080-160-159.080-83.434 0-152.711 69.936-160 159.152 46.885-27.056 102.025-42.532 160-42.532zM128 304c0 26.51 14.327 48 32 48s32-21.49 32-48c0-26.51-14.327-48-32-48s-32 21.49-32 48zM320 304c0 26.51 14.327 48 32 48s32-21.49 32-48c0-26.51-14.327-48-32-48s-32 21.49-32 48z" />
<glyph unicode="&#xe60c;" d="M256-32c141.385 0 256 114.615 256 256s-114.615 256-256 256-256-114.615-256-256 114.615-256 256-256zM256 432c114.875 0 208-93.125 208-208s-93.125-208-208-208-208 93.125-208 208 93.125 208 208 208zM128 320c0 17.673 14.327 32 32 32s32-14.327 32-32c0-17.673-14.327-32-32-32s-32 14.327-32 32zM320 320c0 17.673 14.327 32 32 32s32-14.327 32-32c0-17.673-14.327-32-32-32s-32 14.327-32 32zM352.049 166.37l41.164-24.698c-27.981-46.535-78.958-77.672-137.213-77.672s-109.232 31.137-137.213 77.672l41.164 24.698c19.587-32.574 55.271-54.37 96.049-54.37s76.462 21.796 96.049 54.37z" />
<glyph unicode="&#xe60d;" d="M256-32c141.385 0 256 114.615 256 256s-114.615 256-256 256-256-114.615-256-256 114.615-256 256-256zM256 432c114.875 0 208-93.125 208-208s-93.125-208-208-208-208 93.125-208 208 93.125 208 208 208zM128 320c0 17.673 14.327 32 32 32s32-14.327 32-32c0-17.673-14.327-32-32-32s-32 14.327-32 32zM320 320c0 17.673 14.327 32 32 32s32-14.327 32-32c0-17.673-14.327-32-32-32s-32 14.327-32 32zM159.951 89.63l-41.164 24.698c27.981 46.535 78.958 77.672 137.213 77.672s109.231-31.137 137.213-77.672l-41.164-24.698c-19.587 32.574-55.271 54.37-96.049 54.37-40.779 0-76.462-21.796-96.049-54.37z" />
<glyph unicode="&#xe60e;" d="M256-32c141.385 0 256 114.615 256 256s-114.615 256-256 256-256-114.615-256-256 114.615-256 256-256zM256 432c114.875 0 208-93.125 208-208s-93.125-208-208-208-208 93.125-208 208 93.125 208 208 208zM271.37 124.486c70.124 13.853 124.555 45.771 144.227 88.297-10.827-83.978-80.759-148.783-165.425-148.783-59.621 0-111.929 32.141-141.446 80.474 35.205-27.529 97.267-32.904 162.644-19.988zM320 304c0 26.51 14.327 48 32 48s32-21.49 32-48c0-26.51-14.327-48-32-48s-32 21.49-32 48zM176 294.25c-20.898 0-38.667-7.828-45.258-18.75-1.77 2.933-2.742 16.087-2.742 19.375 0 15.533 21.49 28.125 48 28.125s48-12.592 48-28.125c0-3.288-0.972-16.442-2.742-19.375-6.591 10.922-24.36 18.75-45.258 18.75z" />
<glyph unicode="&#xe60f;" d="M256-32c141.385 0 256 114.615 256 256s-114.615 256-256 256-256-114.615-256-256 114.615-256 256-256zM256 432c114.875 0 208-93.125 208-208s-93.125-208-208-208-208 93.125-208 208 93.125 208 208 208zM96 224v-32c0-70.4 57.6-128 128-128h64c70.4 0 128 57.6 128 128v32h-320zM192 101.506c-13.269 4.729-25.462 12.411-35.772 22.723-18.203 18.201-28.228 42.27-28.228 67.771h64v-90.494zM288 96h-64v96h64v-96zM355.772 124.229c-10.312-10.312-22.505-17.994-35.772-22.723v90.494h64c0-25.501-10.024-49.57-28.228-67.771zM112.676 288c0.001 0 0 0 0 0 4.884 0 9.054 3.528 9.862 8.345 3.079 18.342 18.834 31.655 37.462 31.655s34.383-13.313 37.462-31.655c0.808-4.816 4.978-8.345 9.861-8.345 4.884 0 9.054 3.528 9.862 8.344 0.541 3.218 0.814 6.467 0.814 9.656 0 31.981-26.019 58-58 58s-58-26.019-58-58c0-3.189 0.274-6.438 0.814-9.656 0.81-4.816 4.98-8.344 9.863-8.344zM304.676 288c0.001 0 0 0 0 0 4.885 0 9.056 3.528 9.862 8.345 3.079 18.342 18.834 31.655 37.462 31.655s34.383-13.313 37.462-31.655c0.808-4.816 4.979-8.345 9.861-8.345s9.054 3.528 9.861 8.344c0.541 3.218 0.814 6.467 0.814 9.656 0 31.981-26.019 58-58 58s-58-26.019-58-58c0-3.189 0.272-6.438 0.813-9.656 0.812-4.816 4.982-8.344 9.865-8.344z" />
<glyph unicode="&#xe610;" d="M256-32c141.385 0 256 114.615 256 256s-114.615 256-256 256-256-114.615-256-256 114.615-256 256-256zM256 432c114.875 0 208-93.125 208-208s-93.125-208-208-208-208 93.125-208 208 93.125 208 208 208zM352.049 89.63c-19.587 32.574-55.272 54.37-96.049 54.37s-76.462-21.796-96.049-54.37l-41.164 24.698c27.98 46.535 78.958 77.672 137.213 77.672s109.232-31.137 137.213-77.672l-41.164-24.698zM383.521 339.88c2.142-8.572-3.070-17.259-11.641-19.402-8.813-2.225-19.261-6.060-28.468-10.675 5.324-5.715 8.587-13.376 8.587-21.803 0-17.673-14.327-32-32-32s-32 14.327-32 32c0 0.585 0.018 1.165 0.049 1.742 1.016 23.727 22.606 39.473 40.796 48.569 17.371 8.685 34.551 13.030 35.274 13.211 8.573 2.144 17.259-3.069 19.403-11.642zM128.479 339.88c2.144 8.573 10.83 13.786 19.403 11.642 0.723-0.181 17.903-4.526 35.274-13.211 18.19-9.096 39.78-24.842 40.796-48.569 0.031-0.577 0.049-1.157 0.049-1.742 0-17.673-14.327-32-32-32s-32 14.327-32 32c0 8.427 3.263 16.088 8.587 21.803-9.207 4.615-19.655 8.45-28.468 10.675-8.571 2.143-13.783 10.83-11.641 19.402z" />
<glyph unicode="&#xe611;" d="M256-32c141.385 0 256 114.615 256 256s-114.615 256-256 256-256-114.615-256-256 114.615-256 256-256zM256 432c114.875 0 208-93.125 208-208s-93.125-208-208-208-208 93.125-208 208 93.125 208 208 208zM128 320c0-17.673 14.327-32 32-32s32 14.327 32 32-14.327 32-32 32-32-14.327-32-32zM320 320c0-17.673 14.327-32 32-32s32 14.327 32 32-14.327 32-32 32-32-14.327-32-32zM192 128h128v-32h-128v32z" />
<glyph unicode="&#xe612;" d="M256-32c141.385 0 256 114.615 256 256s-114.615 256-256 256-256-114.615-256-256 114.615-256 256-256zM256 432c114.875 0 208-93.125 208-208s-93.125-208-208-208-208 93.125-208 208 93.125 208 208 208zM372.87 179.19l11.244-38.388-218.504-64.001-11.244 38.388zM128 320c0 17.673 14.327 32 32 32s32-14.327 32-32c0-17.673-14.327-32-32-32s-32 14.327-32 32zM320 320c0 17.673 14.327 32 32 32s32-14.327 32-32c0-17.673-14.327-32-32-32s-32 14.327-32 32z" />
<glyph unicode="&#xe613;" d="M256 480c-141.385 0-256-114.615-256-256s114.615-256 256-256 256 114.615 256 256-114.615 256-256 256zM384 306.745l-82.744-82.745 82.744-82.744v-45.256h-45.256l-82.744 82.744-82.745-82.744h-45.255v45.256l82.745 82.744-82.745 82.745v45.255h45.255l82.745-82.745 82.744 82.745h45.256v-45.255z" />
<glyph unicode="&#xe614;" d="M256 480c-141.385 0-256-114.615-256-256s114.615-256 256-256 256 114.615 256 256-114.615 256-256 256zM208 64l-106 138 47 49 59-75 185 151 23-23-208-240z" />
<glyph unicode="&#xe615;" d="M432 416l-240-240-112 112-80-80 192-192 320 320z" />
<glyph unicode="&#xe616;" d="M198.717 21.152l-198.934 195.8 98.689 97.135 100.245-98.666 214.81 211.426 98.689-97.135-313.499-308.56zM53.956 216.952l144.762-142.481 259.328 255.241-44.518 43.816-214.81-211.426-100.245 98.667-44.517-43.817z" />
<glyph unicode="&#xe617;" d="M512 224c0 141.385-114.615 256-256 256s-256-114.615-256-256 114.615-256 256-256 256 114.615 256 256zM48 224c0 114.875 93.125 208 208 208s208-93.125 208-208-93.125-208-208-208-208 93.125-208 208zM278.627 73.372l128 128.001c12.497 12.496 12.497 32.757 0 45.254s-32.758 12.497-45.255 0l-73.372-73.372v178.745c0 17.673-14.327 32-32 32s-32-14.327-32-32v-178.745l-73.372 73.373c-12.497 12.497-32.759 12.497-45.256 0-6.248-6.249-9.372-14.439-9.372-22.628s3.124-16.379 9.372-22.627l128-128.001c12.497-12.496 32.759-12.496 45.255 0z" />
<glyph unicode="&#xe618;" d="M394.767 448c0 0-100.478 0-133.97 0-60.061 0-116.585-45.503-116.585-98.211 0-53.863 40.941-97.333 102.044-97.333 4.249 0 8.378 0.085 12.42 0.376-3.964-7.593-6.8-16.144-6.8-25.021 0-14.969 8.052-27.105 18.234-37.012-7.693 0-15.121-0.224-23.226-0.224-74.391 0.001-131.65-47.38-131.65-96.511 0-48.389 62.771-78.656 137.167-78.656 84.812 0 131.653 48.122 131.653 96.514 0 38.801-11.448 62.036-46.843 87.067-12.108 8.571-35.266 29.418-35.266 41.672 0 14.36 4.098 21.434 25.714 38.323 22.156 17.312 37.837 41.651 37.837 69.958 0 33.703-15.011 66.549-43.187 77.386h42.478l29.98 21.672zM347.974 120.271c1.063-4.486 1.642-9.104 1.642-13.814 0-39.1-25.195-69.655-97.487-69.655-51.421 0-88.558 32.552-88.558 71.65 0 38.321 46.063 70.222 97.482 69.666 12-0.127 23.184-2.058 33.334-5.345 27.914-19.414 47.938-30.38 53.587-52.502zM265.643 266.112c-34.519 1.032-67.318 38.613-73.276 83.93-5.958 45.333 17.185 80.021 51.694 78.995 34.504-1.037 67.318-37.407 73.279-82.729 5.953-45.33-17.195-81.229-51.697-80.196z" />
<glyph unicode="&#xe619;" d="M0.403 45.168c-0.122 1.266-0.226 2.535-0.292 3.815 0.065-1.28 0.17-2.549 0.292-3.815zM117.954 197.426c46.005-1.369 76.867 46.349 68.931 106.599-7.947 60.24-51.698 108.584-97.704 109.961-46.013 1.365-76.87-44.741-68.926-105 7.941-60.234 51.676-110.187 97.699-111.56zM512 352v42.655c0 46.94-38.391 85.345-85.329 85.345h-341.328c-46.138 0-84.006-37.116-85.282-82.963 29.181 25.693 69.662 47.158 111.437 47.158 44.652 0 178.622 0 178.622 0l-39.974-33.809h-56.634c37.565-14.402 57.578-58.062 57.578-102.861 0-37.624-20.905-69.977-50.444-92.984-28.822-22.451-34.286-31.854-34.286-50.939 0-16.289 30.873-44 47.016-55.394 47.191-33.269 62.458-64.156 62.458-115.728 0-8.214-1.021-16.415-3.033-24.48h153.871c46.937 0 85.328 38.375 85.328 85.345v266.654h-96v-95.999h-32v96h-95.999v32h95.999v96h32v-96h96zM92.943 97.032c10.807 0 20.711 0.295 30.968 0.295-13.573 13.167-24.313 29.3-24.313 49.19 0 11.804 3.782 23.168 9.067 33.26-5.391-0.385-10.895-0.497-16.563-0.497-37.178 0-68.753 12.038-92.102 31.927v-33.621l0.003-100.865c26.72 12.687 58.444 20.311 92.94 20.311zM1.71 36.371c-0.556 2.729-0.983 5.503-1.271 8.317 0.287-2.814 0.715-5.588 1.271-8.317zM227.725 3.577c-7.529 29.403-34.227 43.982-71.444 69.784-13.536 4.366-28.447 6.937-44.447 7.104-44.809 0.482-86.554-17.471-110.108-44.186 7.96-38.853 42.517-68.279 83.617-68.279h143.222c0.908 5.564 1.348 11.316 1.348 17.216 0 6.267-0.767 12.396-2.188 18.361z" />
<glyph unicode="&#xe61a;" d="M426.672 480h-341.33c-46.936 0-85.342-38.407-85.342-85.344v-341.313c0-46.969 38.406-85.343 85.342-85.343l341.33 0.001c46.938 0 85.328 38.373 85.328 85.344v341.311c0 46.937-38.391 85.344-85.328 85.344zM435.296 224h-83.296v-224h-96v224h-46.263v73.282h46.263v47.593c0 64.671 27.896 103.125 103.935 103.125h87.622v-79.285h-71.565c-21.241 0.035-23.876-11.076-23.876-31.756l-0.116-39.677h96l-12.704-73.282z" />
<glyph unicode="&#xe61b;" d="M256 480c141.385 0 256-114.615 256-256 0-130.547-97.719-238.265-224-254.013v190.013h88l8 64h-96v32c0 17.673 14.327 32 32 32h64v64h-64c-53.020 0-96-42.98-96-96v-32h-48v-64h48v-190.013c-126.281 15.748-224 123.466-224 254.013 0 141.385 114.615 256 256 256z" />
<glyph unicode="&#xe61c;" d="M512 382.791c-18.838-8.354-39.082-14.001-60.33-16.54 21.686 13 38.343 33.585 46.186 58.115-20.298-12.039-42.778-20.78-66.705-25.49-19.16 20.415-46.461 33.17-76.673 33.17-58.011 0-105.044-47.029-105.044-105.039 0-8.233 0.929-16.25 2.72-23.939-87.3 4.382-164.701 46.2-216.509 109.753-9.042-15.514-14.223-33.558-14.223-52.809 0-36.444 18.544-68.596 46.73-87.433-17.219 0.546-33.416 5.271-47.577 13.139-0.010-0.438-0.010-0.878-0.010-1.321 0-50.894 36.209-93.348 84.261-103-8.813-2.4-18.094-3.686-27.674-3.686-6.769 0-13.349 0.66-19.764 1.886 13.368-41.73 52.16-72.103 98.126-72.948-35.95-28.175-81.243-44.967-130.458-44.967-8.479 0-16.84 0.497-25.058 1.47 46.486-29.805 101.701-47.197 161.021-47.197 193.211 0 298.868 160.062 298.868 298.872 0 4.554-0.103 9.084-0.305 13.59 20.528 14.81 38.336 33.31 52.418 54.374z" />
<glyph unicode="&#xe61d;" d="M256 480c-141.385 0-256-114.615-256-256s114.615-256 256-256 256 114.615 256 256-114.615 256-256 256zM403.121 299.456c0.146-3.254 0.221-6.528 0.221-9.819 0-100.311-76.354-215.982-215.979-215.982-42.868 0-82.768 12.568-116.363 34.107 5.938-0.704 11.981-1.063 18.108-1.063 35.565 0 68.295 12.138 94.275 32.497-33.217 0.61-61.25 22.561-70.912 52.716 4.637-0.884 9.392-1.361 14.283-1.361 6.923 0 13.629 0.928 19.999 2.662-34.726 6.976-60.893 37.656-60.893 74.434 0 0.32 0 0.639 0.008 0.955 10.235-5.685 21.939-9.1 34.382-9.494-20.37 13.611-33.77 36.846-33.77 63.184 0 13.911 3.744 26.952 10.278 38.162 37.439-45.927 93.374-76.146 156.462-79.314-1.294 5.559-1.965 11.351-1.965 17.302 0 41.92 33.99 75.906 75.909 75.906 21.833 0 41.562-9.218 55.409-23.97 17.29 3.404 33.537 9.721 48.206 18.42-5.668-17.727-17.705-32.603-33.376-41.997 15.355 1.834 29.984 5.916 43.597 11.952-10.175-15.224-23.045-28.593-37.879-39.297z" />
<glyph unicode="&#xe61e;" d="M68.147 104.535c-37.598 0-68.146-30.667-68.146-68.038 0-37.577 30.55-67.901 68.146-67.901 37.733 0 68.247 30.324 68.247 67.901-0.001 37.371-30.512 68.038-68.247 68.038zM0.078 306.035v-98.129c63.892 0 123.979-24.986 169.229-70.256 45.192-45.159 70.141-105.518 70.141-169.65h98.561c-0.001 186.41-151.641 338.035-337.931 338.035zM0.194 480v-98.178c227.891 0 413.378-185.667 413.378-413.822h98.428c0 282.235-229.627 512-511.806 512z" />
<glyph unicode="&#xe61f;" d="M426.67 480h-341.327c-46.938 0-85.343-38.406-85.343-85.344v-341.314c0-46.967 38.406-85.342 85.344-85.342h341.326c46.938 0 85.33 38.374 85.33 85.342v341.314c0 46.938-38.392 85.344-85.33 85.344zM139.472 64.376c-23.985 0-43.472 19.346-43.472 43.314 0 23.842 19.486 43.406 43.472 43.406 24.079 0 43.53-19.564 43.53-43.406-0.001-23.968-19.452-43.314-43.53-43.314zM248.734 64.002c0 40.905-15.904 79.409-44.73 108.222-28.857 28.875-67.188 44.813-107.952 44.813v62.593c118.826 0 215.563-96.721 215.563-215.627l-62.881-0.001zM359.814 64.002c0 145.531-118.329 263.97-263.688 263.97v62.624c180.001 0 326.473-146.562 326.473-326.596l-62.785 0.002z" />
<glyph unicode="&#xe620;" d="M256 480c-141.385 0-256-114.615-256-256s114.615-256 256-256 256 114.615 256 256-114.615 256-256 256zM408.028 71.972c-19.759-19.758-42.756-35.266-68.354-46.093-6.503-2.75-13.107-5.164-19.8-7.246v38.367c0 20.167-6.917 35-20.75 44.5 8.667 0.833 16.625 2 23.875 3.5s14.917 3.667 23 6.5 15.333 6.208 21.75 10.125 12.583 9 18.5 15.25 10.875 13.333 14.875 21.25 7.167 17.417 9.5 28.5 3.5 23.292 3.5 36.625c0 25.833-8.417 47.833-25.25 66 7.667 20 6.833 41.75-2.5 65.25l-6.25 0.75c-4.333 0.5-12.125-1.333-23.375-5.5s-23.875-11-37.875-20.5c-19.833 5.5-40.417 8.25-61.75 8.25-21.5 0-42-2.75-61.5-8.25-8.833 6-17.208 10.958-25.125 14.875s-14.25 6.583-19 8-9.167 2.292-13.25 2.625-6.708 0.417-7.875 0.25-2-0.333-2.5-0.5c-9.333-23.667-10.167-45.417-2.5-65.25-16.833-18.167-25.25-40.167-25.25-66 0-13.333 1.167-25.542 3.5-36.625s5.5-20.583 9.5-28.5 8.958-15 14.875-21.25 12.083-11.333 18.5-15.25 13.667-7.292 21.75-10.125 15.75-5 23-6.5 15.208-2.667 23.875-3.5c-13.667-9.333-20.5-24.167-20.5-44.5v-39.115c-7.549 2.247-14.99 4.902-22.3 7.994-25.597 10.827-48.594 26.335-68.353 46.093-19.758 19.759-35.267 42.756-46.093 68.354-11.199 26.479-16.878 54.631-16.878 83.674s5.679 57.195 16.879 83.675c10.827 25.597 26.335 48.594 46.093 68.353s42.756 35.267 68.353 46.093c26.48 11.2 54.632 16.879 83.675 16.879s57.195-5.679 83.675-16.879c25.598-10.827 48.595-26.335 68.354-46.093 19.758-19.758 35.266-42.756 46.093-68.353 11.199-26.48 16.878-54.632 16.878-83.675s-5.679-57.195-16.879-83.675c-10.827-25.597-26.335-48.595-46.093-68.353z" />
<glyph unicode="&#xe621;" d="M117.639 355.64c-25.396 0-47.242-8.403-65.542-25.208-19.043-17.926-28.57-40.33-28.57-67.218 0-17.926 5.188-34.731 15.647-50.416 9.337-14.563 19.090-23.903 31.889-28.012v-1.121c-12.799-5.224-18.483-18.295-18.483-39.209 0-16.062 5.686-28.011 18.483-35.854v-1.121c-35.327-11.573-51.496-33.047-51.496-64.415 0-27.267 11.874-47.244 35.033-59.939 18.295-10.086 41.789-15.127 70.173-15.127 69.085 0 103.703 28.941 103.703 86.832 0 36.223-26.661 58.441-80.064 66.658-12.323 1.863-21.643 6.348-27.991 13.445-4.854 4.854-7.271 9.709-7.271 14.563 0 13.816 7.479 21.848 22.41 24.088 22.779 3.357 41.364 13.912 55.743 31.648 14.375 17.74 21.565 38.559 21.565 62.458 0 7.469-2.259 15.498-5.244 24.086 9.709 2.244 16.525 4.297 21.646 6.166v57.696c-22.527-8.964-43.495-13.442-61.421-13.442-15.687 8.961-31.912 13.442-50.21 13.442zM123.801 76.115c31.372 0 47.052-9.521 47.052-28.57 0-20.168-14.377-30.246-43.132-30.246-32.862 0-49.293 9.711-49.293 29.127-0.001 19.795 15.122 29.689 45.373 29.689zM119.88 224c-23.527 0-35.293 12.882-35.293 38.654 0 27.631 11.766 41.453 35.293 41.453 11.201 0 19.979-4.298 26.326-12.884 5.229-7.845 7.845-17.18 7.845-28.011 0-26.139-11.393-39.212-34.171-39.212zM290.192 480c-10.828 0-20.070-4.107-27.727-12.324-7.657-8.218-11.485-18.108-11.485-29.688 0-11.205 3.829-20.91 11.485-29.129 7.654-8.217 16.896-12.32 27.727-12.32 10.455 0 19.514 4.104 27.17 12.32 7.656 8.219 11.48 17.924 11.48 29.129 0 11.58-3.824 21.472-11.48 29.688-7.659 8.217-16.715 12.324-27.17 12.324zM321.565 352.001h-63.303c0.748-7.168-0.32-18.021-0.32-35.57v-174.216c0-17.928 1.068-32.387 0.32-38.018h63.303c-0.75 8.188-2.697 22.334-2.697 41.379v171.973c-0.003 16.432 1.947 27.284 2.697 34.452zM461.168 157.9c-16.436 0-24.541 12.514-24.541 37.533v103.32h24.932c4.48 0 8.516 0.246 13.559-0.123 5.043-0.374 7.076-0.125 9.639-0.125v53.495h-48.129v23.808c0 8.961 1.408 17.151 2.527 22.271h-64.979c1.121-5.12 1.014-12.938 1.014-23.395v-22.684h-28.16v-53.494c7.682 1.12 14.545 1.678 19.398 1.678l8.762-0.559v-101.393c0-31.371 3.979-54.336 11.818-68.9 10.461-19.42 28.811-29.129 56.068-29.129 19.424 0 36.559 3.732 49.357 11.205v56.016c-10.237-6.35-19.691-9.524-31.265-9.524z" />
<glyph unicode="&#xe622;" d="M512 160v-192h-512v192h64v-128h384v128zM96 128h320v-64h-320zM103.576 197.267l13.849 62.482 312.416-69.248-13.849-62.482zM139.829 325.721l27.046 58.003 290.016-135.232-27.046-58.003zM495.861 299.262l-38.961-50.775-253.873 194.804 28.168 36.709h29.122z" />
<glyph unicode="&#xe623;" d="M30.269 480l41.072-460.815 184.378-51.185 184.862 51.262 41.15 460.738h-451.462zM392.315 329.286h-216.27l5.151-57.875h205.984l-15.521-173.505-115.922-32.127-115.786 32.127-7.915 88.756h56.747l4.024-45.116 62.931-16.958 0.139 0.039 62.967 16.996 6.535 73.275h-195.87l-15.247 170.9h283.107l-5.054-56.512z" />
<glyph unicode="&#xe624;" d="M30.269 480l41.072-460.815 184.378-51.185 184.862 51.262 41.15 460.738h-451.462zM405.381 48.588l-148.613-41.188v-0.233l-0.388 0.117-0.391-0.117v0.233l-148.611 41.188-35.121 393.743h368.248l-35.124-393.743zM325.377 214.898l-6.535-73.276-63.105-17.035-62.931 16.958-4.025 45.117h-56.745l7.915-88.756 116.038-32.088 115.671 32.088 15.52 173.506h-205.983l-5.151 57.874h216.267l5.056 56.513h-283.109l15.249-170.901z" />
<glyph unicode="&#xe625;" d="M129.139 256.729l-73.266 126.901c46.909 58.732 119.117 96.37 200.127 96.37 93.716 0 175.655-50.368 220.266-125.5h-208.885c-3.752 0.325-7.546 0.5-11.381 0.5-60.937 0-112.289-41.822-126.861-98.271zM347.653 317.5h146.73c11.37-28.965 17.617-60.502 17.617-93.5 0-140.413-113.050-254.402-253.093-255.963l104.697 181.339c14.74 21.189 23.396 46.913 23.396 74.624 0 36.585-15.082 69.71-39.347 93.5zM163 224c0 51.28 41.72 93 93 93s93-41.72 93-93c0-51.28-41.72-93-93-93s-93 41.72-93 93zM291.091 97.779l-73.289-126.939c-123.266 18.442-217.802 124.758-217.802 253.16 0 45.609 11.942 88.423 32.848 125.512l104.515-181.027c20.934-44.556 66.238-75.485 118.637-75.485 12.15 0 23.918 1.67 35.091 4.779z" />
<glyph unicode="&#xe626;" d="M511.263 312.93l-5.93-38.040c0 0-8.477 70.428-18.866 96.757-15.923 40.344-23.007 40.020-23.054 39.961 10.665-27.102 8.731-41.662 8.731-41.662s-18.896 51.499-68.856 67.884c-55.343 18.141-85.285 13.182-88.744 12.243-0.525 0.004-1.032 0.005-1.515 0.005 0.409-0.031 0.806-0.073 1.213-0.106-0.017-0.010-0.045-0.021-0.041-0.026 0.225-0.274 61.153-10.651 71.958-25.498 0 0-25.88 0-51.636-7.421-1.164-0.333 94.762-11.982 114.373-107.837 0 0-10.515 21.938-23.52 25.664 8.553-26.018 6.357-75.388-1.788-99.925-1.048-3.156-2.12 13.641-18.164 20.875 5.14-36.823-0.308-95.228-25.854-111.316-1.991-1.252 16.015 57.655 3.621 34.881-71.354-109.401-155.702-50.486-193.624-24.555 19.433-4.231 56.327 0.659 72.657 12.806 0.021 0.015 0.039 0.028 0.059 0.043 17.734 12.126 28.236 20.982 37.667 18.886 9.437-2.107 15.719 7.363 8.39 15.765-7.338 8.419-25.157 19.989-49.262 13.683-17-4.452-38.067-23.261-70.224-4.216-24.682 14.625-27.006 26.773-27.225 35.188 0.609 2.983 1.377 5.768 2.288 8.312 2.841 7.935 11.456 10.329 16.247 12.219 8.128-1.396 15.131-3.931 22.484-7.703 0.095 2.447 0.126 5.695-0.009 9.38 0.705 1.401 0.269 5.626-0.861 10.79-0.651 5.154-1.71 10.487-3.376 15.346 0.006 0.001 0.010 0.005 0.015 0.007 0.028 0.009 0.054 0.020 0.078 0.035 0.039 0.022 0.073 0.056 0.104 0.095 0.006 0.010 0.015 0.017 0.022 0.026 0.041 0.062 0.077 0.136 0.099 0.233 0.51 2.309 6.011 6.762 12.859 11.55 6.136 4.29 13.351 8.848 19.034 12.376 5.030 3.124 8.86 5.441 9.673 6.049 0.309 0.233 0.679 0.506 1.082 0.818 0.075 0.058 0.15 0.116 0.227 0.177 0.047 0.037 0.095 0.074 0.143 0.113 2.705 2.154 6.742 6.224 7.589 14.789 0.002 0.021 0.005 0.040 0.006 0.061 0.025 0.252 0.046 0.507 0.065 0.767 0.014 0.181 0.025 0.363 0.036 0.548 0.007 0.142 0.016 0.283 0.022 0.428 0.015 0.337 0.025 0.682 0.030 1.032 0 0.020 0.001 0.038 0.002 0.058 0.011 0.829-0.003 1.693-0.052 2.601-0.027 0.507-0.063 0.965-0.149 1.381-0.004 0.022-0.009 0.046-0.014 0.068-0.009 0.041-0.018 0.082-0.029 0.122-0.018 0.073-0.038 0.146-0.061 0.215-0.003 0.009-0.005 0.016-0.008 0.023-0.026 0.080-0.056 0.157-0.087 0.232-0.002 0.003-0.002 0.005-0.003 0.008-0.877 2.054-4.16 2.829-17.721 3.059-0.013 0.001-0.025 0.001-0.038 0.001v0c-5.533 0.094-12.769 0.097-22.251 0.059-16.625-0.067-25.814 16.252-28.747 22.566 4.020 22.23 15.638 38.071 34.725 48.813 0.361 0.203 0.29 0.371-0.137 0.489 3.732 2.257-45.123 0.062-67.593-28.518-19.944 4.957-37.327 4.623-52.308 1.107-2.877 0.081-6.462 0.44-10.717 1.326-9.962 9.028-24.224 25.701-24.988 45.604 0 0-0.046-0.036-0.126-0.102-0.010 0.191-0.028 0.38-0.036 0.571 0 0-30.358-23.332-25.814-86.941-0.011-1.018-0.032-1.993-0.060-2.937-8.216-11.144-12.293-20.51-12.596-22.578-7.28-14.822-14.667-37.127-20.678-70.99 0 0 4.204 13.333 12.642 28.433-6.206-19.011-11.082-48.578-8.218-92.928 0 0 0.757 9.833 3.437 23.997 2.093-27.505 11.259-61.462 34.429-101.394 44.474-76.66 112.835-115.37 188.396-121.308 13.418-1.106 27.025-1.132 40.712-0.093 1.258 0.089 2.516 0.182 3.775 0.287 15.482 1.087 31.067 3.426 46.619 7.183 212.586 51.399 189.471 308.099 189.471 308.099z" />
<glyph unicode="&#xe627;" d="M367.101 165.585h118.025c0.91 8.185 1.274 16.549 1.274 25.098 0 40.112-10.767 77.734-29.562 110.133 19.44 51.654 18.746 95.494-7.278 121.695-24.748 24.64-91.145 20.64-166.206-12.599-5.552 0.42-11.159 0.636-16.819 0.636-103.024 0-189.463-70.897-213.354-166.425 32.319 41.377 66.319 71.377 111.739 93.224-4.13-3.87-28.227-27.826-32.28-31.882-119.774-119.739-157.545-276.153-116.903-316.802 30.893-30.887 86.879-25.671 151.188 5.824 29.903-15.229 63.75-23.815 99.609-23.815 96.567 0 178.402 62.158 208.045 148.724h-118.934c-16.367-30.191-48.374-50.74-85.109-50.74s-68.742 20.549-85.108 50.74c-7.275 13.637-11.457 29.277-11.457 45.828v0.361h193.13zM174.151 223.598c2.728 48.555 43.1 87.292 92.383 87.292s89.656-38.736 92.383-87.292h-184.766zM448.483 398.096c16.763-16.94 16.344-48.107 2.006-87.011-24.568 37.454-60.259 66.968-102.396 83.82 45.053 19.319 81.703 21.878 100.39 3.191zM46.741-3.628c-21.391 21.398-14.942 66.309 12.615 120.416 17.154-48.135 50.578-88.545 93.668-114.577-47.715-21.659-86.768-25.337-106.283-5.839z" />
<glyph unicode="&#xe628;" d="M255.023 480c-139.862 0-240.374-101.448-240.374-253.612 0-135.409 97.751-258.388 240.392-258.388 144.039 0 242.31 122.943 242.31 258.388 0 153.38-103.723 253.612-242.328 253.612zM344.179 230.729c-0.034-84.676-4.549-205.241-89.138-205.241v-0.017c-83.392 0-86.716 120.633-86.716 205.154 0 99.19 9.28 194.284 86.716 194.284 77.437 0 89.138-96.292 89.138-194.18z" />
<glyph unicode="&#xe629;" d="M256 448c-12.032 0-23.854-0.896-35.412-2.606-0.15 0.391-0.312 0.774-0.491 1.148 6.413 5.001 9.775 11.915 8.317 18.776-1.867 8.782-11.197 14.682-23.217 14.682-2.59 0-5.229-0.281-7.84-0.836-15.084-3.207-25.073-14.311-22.741-25.281 1.417-6.669 7.146-11.669 15.082-13.692-0.016-0.486-0.008-0.975 0.021-1.467-100.311-28.765-173.719-121.169-173.719-230.724 0-132.549 107.452-240 240-240s240 107.451 240 240c0 132.548-107.451 240-240 240zM182.441 455.546c-1.353 6.363 6.24 13.595 16.579 15.792 2.066 0.439 4.145 0.662 6.177 0.662 8.018 0 14.347-3.432 15.392-8.345 0.798-3.755-1.535-7.805-5.693-10.952-3.517 2.483-8.008 3.563-12.55 2.598-4.522-0.961-8.174-3.754-10.379-7.428-5.092 1.225-8.754 4.042-9.526 7.673zM384.693 79.307c-21.984-21.984-48.605-37.639-77.655-46.077l-21.198 34.384-5.373-39.979c-8.045-1.076-16.213-1.635-24.467-1.635-48.614 0-94.318 18.932-128.693 53.307-21.984 21.983-37.639 48.605-46.077 77.654l34.384 21.199-39.98 5.373c-1.075 8.045-1.634 16.213-1.634 24.467 0 48.614 18.931 94.318 53.307 128.693 21.984 21.984 48.606 37.639 77.655 46.078l21.198-34.385 5.374 39.98c8.044 1.075 16.212 1.634 24.466 1.634 48.614 0 94.318-18.931 128.693-53.307 21.984-21.984 37.639-48.606 46.077-77.655l-34.385-21.199 39.98-5.373c1.076-8.044 1.635-16.212 1.635-24.466 0-48.614-18.932-94.318-53.307-128.693zM380.451 332.451l-98.489-74.852c-7.322 3.829-15.438 6.031-23.708 6.363l-25.54 53.59-1.534-59.332c-6.642-3.268-12.552-7.832-17.438-13.475l-31.544 11.182 23.046-24.269c-3.167-6.759-4.933-14.015-5.217-21.412l-53.579-25.533 59.369-1.534c0.19-0.384 0.387-0.763 0.585-1.141l-74.852-98.49 98.489 74.852c7.322-3.828 15.437-6.030 23.708-6.362l25.54-53.591 1.533 59.332c6.643 3.269 12.553 7.832 17.439 13.476l31.545-11.184-23.047 24.27c3.168 6.76 4.934 14.015 5.218 21.412l53.578 25.533-59.368 1.535c-0.189 0.383-0.387 0.762-0.585 1.14l74.851 98.49zM256.051 257.733v0zM246.021 254.951c3.363 0.715 6.722 1.059 10.028 1.059 2.072 0 4.125-0.135 6.147-0.398l0.046-0.016-0.005 0.011c4.366-0.572 8.588-1.75 12.566-3.448l-35.773-27.188-27.19-35.776c-1.188 2.797-2.135 5.742-2.79 8.826-5.513 25.93 11.040 51.418 36.971 56.93zM281.060 167.058v0 0c-4.528-2.772-9.591-4.842-15.080-6.009-3.363-0.715-6.722-1.059-10.027-1.059-2.075 0-4.129 0.136-6.154 0.399l-0.034 0.005c-4.367 0.571-8.587 1.75-12.566 3.447l35.772 27.188 27.19 35.777c1.188-2.797 2.135-5.743 2.79-8.827 4.345-20.441-5.028-40.6-21.891-50.921z" />
<glyph unicode="&#xe62a;" d="M480 256c-17.688 0-32-14.328-32-32v-192h-384v192c0 17.672-14.312 32-32 32s-32-14.328-32-32v-224c0-17.672 14.312-32 32-32h448c17.688 0 32 14.328 32 32v224c0 17.672-14.312 32-32 32zM288 256v195.909c0 15.513-14.312 28.091-32 28.091s-32-12.578-32-28.091v-195.909h-96l128-128 128 128h-96z" />
<glyph unicode="&#xe62b;" d="M497.76 26.624c-3.216 2.128-61.568 40.4-148.368 59.184 31.84 40.336 52.288 94.592 60.976 130.704 12.064 50.048 7.376 147.968-40.688 208.992-28.096 35.664-67.408 54.496-113.68 54.496s-85.584-18.848-113.664-54.496c-48.064-61.008-52.736-158.928-40.688-208.976 8.688-36.112 29.12-90.368 60.976-130.704-86.8-18.784-145.152-57.056-148.352-59.184-11.728-7.808-16.976-22.4-12.88-35.872 4.064-13.52 16.528-22.768 30.608-22.768h448c14.096 0 26.528 9.248 30.624 22.752 4.112 13.472-1.136 28.064-12.864 35.872zM324.272 105.632l-5.216-6.624c-38.16-43.84-87.92-43.84-126.064 0l-5.232 6.624c-44.56 56.464-66.672 131.152-57.152 202.4 8.72 68.464 47.952 139.968 125.392 139.968s116.688-71.52 125.408-139.984c9.488-71.28-12.544-145.888-57.136-202.384zM32 0c2.208 1.472 56.416 37.024 137.376 54.528l39.744 8.592c14.192-9.312 29.76-15.12 46.88-15.12 17.136 0 32.688 5.808 46.88 15.12l39.744-8.592c80.32-17.376 134.336-52.528 137.376-54.528h-448z" />
<glyph unicode="&#xe62c;" d="M486.256 277.12l-49.024 9.824c-2.464 7.088-5.376 13.968-8.592 20.624l27.776 41.664c8.464 12.688 6.784 29.6-4 40.368l-30.784 30.784c-6.192 6.192-14.368 9.376-22.656 9.376-6.128 0-12.32-1.76-17.712-5.376l-41.664-27.76c-6.688 3.232-13.568 6.112-20.656 8.576l-9.824 49.040c-2.976 14.976-16.128 25.728-31.376 25.728h-43.52c-15.248 0-28.384-10.768-31.376-25.728l-9.824-49.040c-7.088-2.464-13.968-5.36-20.624-8.576l-41.648 27.76c-5.424 3.616-11.6 5.376-17.744 5.376-8.272 0-16.448-3.184-22.64-9.376l-30.768-30.784c-10.784-10.784-12.464-27.68-4-40.368l27.76-41.664c-3.232-6.672-6.112-13.552-8.576-20.64l-49.056-9.808c-14.96-2.992-25.728-16.128-25.728-31.376v-43.52c0-15.248 10.768-28.4 25.728-31.376l49.040-9.84c2.464-7.088 5.36-13.968 8.576-20.624l-27.744-41.664c-8.464-12.688-6.784-29.6 4-40.368l30.784-30.784c6.192-6.192 14.368-9.376 22.64-9.376 6.144 0 12.336 1.776 17.728 5.376l41.664 27.776c6.672-3.248 13.552-6.128 20.64-8.592l9.808-49.024c2.992-14.976 16.128-25.744 31.376-25.744h43.52c15.248 0 28.4 10.784 31.376 25.744l9.84 49.024c7.088 2.464 13.968 5.376 20.624 8.592l41.664-27.776c5.408-3.6 11.6-5.376 17.712-5.376 8.288 0 16.464 3.184 22.656 9.376l30.784 30.784c10.784 10.784 12.464 27.68 4 40.368l-27.776 41.664c3.248 6.688 6.128 13.568 8.592 20.656l49.024 9.808c14.96 2.96 25.744 16.128 25.744 31.376v43.52c0 15.248-10.784 28.384-25.744 31.376zM430.944 192.4c-11.12-2.224-20.224-10.16-23.936-20.88-2.064-5.904-4.464-11.632-7.152-17.184-4.976-10.224-4.128-22.288 2.16-31.712l27.776-41.664-30.784-30.784-41.664 27.776c-5.344 3.568-11.536 5.376-17.744 5.376-4.752 0-9.536-1.056-13.936-3.184-5.568-2.688-11.28-5.12-17.216-7.184-10.688-3.712-18.624-12.816-20.848-23.936l-9.84-49.056h-43.52l-9.808 49.056c-2.224 11.12-10.16 20.224-20.864 23.936-5.904 2.064-11.648 4.464-17.2 7.152-4.416 2.16-9.184 3.216-13.952 3.216-6.224 0-12.4-1.808-17.744-5.376l-41.664-27.776-30.784 30.784 27.76 41.664c6.288 9.44 7.104 21.504 2.192 31.68-2.688 5.568-5.104 11.28-7.168 17.216-3.712 10.688-12.832 18.624-23.936 20.848l-49.040 9.84-0.032 43.536 49.056 9.808c11.104 2.224 20.224 10.16 23.936 20.864 2.064 5.904 4.448 11.648 7.152 17.2 4.96 10.208 4.128 22.272-2.176 31.696l-27.744 41.664 30.768 30.784 41.664-27.76c5.344-3.568 11.536-5.376 17.744-5.376 4.752 0 9.52 1.056 13.936 3.184 5.552 2.688 11.28 5.104 17.2 7.168 10.704 3.712 18.64 12.832 20.864 23.936l9.824 49.040 43.52 0.016 9.808-49.056c2.224-11.104 10.16-20.224 20.88-23.936 5.904-2.064 11.632-4.448 17.184-7.152 4.432-2.144 9.184-3.2 13.968-3.2 6.224 0 12.4 1.808 17.744 5.376l41.664 27.76 30.784-30.784-27.776-41.664c-6.288-9.44-7.088-21.488-2.192-31.68 2.688-5.552 5.12-11.28 7.184-17.2 3.712-10.704 12.816-18.64 23.936-20.864l49.024-9.824 0.048-43.52-49.056-9.824zM256 335.984c-61.84 0-112-50.16-112-112 0-61.856 50.16-112 112-112s112 50.16 112 112c0 61.84-50.16 112-112 112zM256 125.968c-54.112 0-98 43.904-98 98 0 54.112 43.888 98 98 98 54.096 0 98-43.888 98-98 0-54.096-43.904-98-98-98zM256 287.984c-35.36 0-64-28.64-64-64 0-35.344 28.64-64 64-64 35.344 0 64 28.656 64 64s-28.656 64-64 64zM256 175.968c-26.496 0-48 21.504-48 48s21.504 48 48 48 48-21.504 48-48c0-26.496-21.504-48-48-48z" />
<glyph unicode="&#xe62d;" d="M256 368c4.416 0 8-3.584 8-8s-3.6-8-8-8c-85.232 0-160-44.864-160-96 0-4.416-3.584-8-8-8s-8 3.584-8 8c0 60.704 80.592 112 176 112zM256 448c-141.392 0-256-85.968-256-192 0-66.032 44.464-124.256 112.128-158.816 0-0.432-0.128-0.72-0.128-1.184 0-28.688-21.424-59.568-30.848-75.776 0.016 0 0.032 0 0.032 0-0.752-1.76-1.184-3.696-1.184-5.728 0-8 6.48-14.496 14.496-14.496 1.504 0 4.144 0.4 4.080 0.224 50 8.192 97.104 54.128 108.048 67.44 15.984-2.352 32.464-3.664 49.376-3.664 141.36 0 256 85.968 256 192s-114.624 192-256 192zM256 96c-14.672 0-29.728 1.12-44.736 3.312-1.552 0.256-3.104 0.336-4.64 0.336-9.504 0-18.608-4.224-24.736-11.68-6.848-8.336-26.336-26.944-49.36-40.624 6.24 14.32 11.12 30.368 11.456 46.912 0.096 1.024 0.144 2.064 0.144 2.944 0 12.032-6.736 23.024-17.44 28.496-59.296 30.272-94.688 78.992-94.688 130.304 0 88.224 100.48 160 224 160 123.488 0 224-71.776 224-160s-100.496-160-224-160z" />
</font></defs></svg>